МФ - РАСПОРЕД ЧАСОВА У ЗИМСКОМ СЕМЕСТРУ ШКОЛСКЕ 2018/19 ГОДИНЕ

ГРУПЕ

ПРЕДАВАЧИ

УЧИОНИЦЕ

ГРУПА: 1И2А

Понедељак

08:15 - 09:00	09:15 - 10:00	10:15 - 11:00
Увод у организацију и архитектуру рачунара 1
Нина Радојичић
718

Уторак

10:15 - 11:00	11:15 - 12:00
Увод у организацију и архитектуру рачунара 1 (вежбе)
Биљана Стојановић
821

14:15 - 15:00	15:15 - 16:00
Енглески 1
Зоран Павловић
821


Среда

09:15 - 10:00	10:15 - 11:00	11:15 - 12:00
Програмирање 1
Младен Николић
706

12:15 - 13:00	13:15 - 14:00	14:15 - 15:00
Дискретне структуре 1
Зоран Пуцановић
706

Четвртак

08:15 - 09:00	09:15 - 10:00	10:15 - 11:00
Линеарна алгебра и аналитичка геометрија (вежбе)
Димитрије Шпадијер
830

11:15 - 12:00	12:15 - 13:00	13:15 - 14:00
Линеарна алгебра и аналитичка геометрија
Зоран Ракић
830

14:15 - 15:00	15:15 - 16:00
Техничко и научно писање
Милена Вујошевић-Јаничић
718

Петак

08:15 - 09:00	09:15 - 10:00
Дискретне структуре 1 (вежбе)
Александра Костић
ЈАГ4

11:15 - 12:00	12:15 - 13:00	13:15 - 14:00
Програмирање 1 (вежбе)
С-РИ5
ЈАГ1