{
  "exam_weeks": [
    {
      "end_date": {
        "day": 3,
        "month": 2,
        "year": 2018
      },
      "start_date": {
        "day": 15,
        "month": 1,
        "year": 2018
      }
    },
    {
      "end_date": {
        "day": 19,
        "month": 2,
        "year": 2018
      },
      "start_date": {
        "day": 5,
        "month": 2,
        "year": 2018
      }
    },
    {
      "end_date": {
        "day": 1,
        "month": 7,
        "year": 2018
      },
      "start_date": {
        "day": 11,
        "month": 6,
        "year": 2018
      }
    },
    {
      "end_date": {
        "day": 15,
        "month": 7,
        "year": 2018
      },
      "start_date": {
        "day": 3,
        "month": 7,
        "year": 2018
      }
    },
    {
      "end_date": {
        "day": 13,
        "month": 9,
        "year": 2018
      },
      "start_date": {
        "day": 27,
        "month": 8,
        "year": 2018
      }
    },
    {
      "end_date": {
        "day": 25,
        "month": 9,
        "year": 2018
      },
      "start_date": {
        "day": 15,
        "month": 9,
        "year": 2018
      }
    }
  ],
  "midterm_weeks": [
    {
      "end_date": {
        "day": 19,
        "month": 11,
        "year": 2017
      },
      "start_date": {
        "day": 18,
        "month": 11,
        "year": 2017
      }
    },
    {
      "end_date": {
        "day": 28,
        "month": 11,
        "year": 2017
      },
      "start_date": {
        "day": 25,
        "month": 11,
        "year": 2017
      }
    },
    {
      "end_date": {
        "day": 13,
        "month": 1,
        "year": 2018
      },
      "start_date": {
        "day": 8,
        "month": 1,
        "year": 2018
      }
    },
    {
      "end_date": {
        "day": 15,
        "month": 4,
        "year": 2018
      },
      "start_date": {
        "day": 10,
        "month": 4,
        "year": 2018
      }
    },
    {
      "end_date": {
        "day": 6,
        "month": 6,
        "year": 2018
      },
      "start_date": {
        "day": 1,
        "month": 6,
        "year": 2018
      }
    }
  ],
  "working_weekend_days": [
    {
      "date": {
        "day": 2,
        "month": 12,
        "year": 2017
      },
      "day": "monday"
    },
    {
      "date": {
        "day": 16,
        "month": 12,
        "year": 2017
      },
      "day": "tuesday"
    },
    {
      "date": {
        "day": 3,
        "month": 3,
        "year": 2018
      },
      "day": "monday"
    },
    {
      "date": {
        "day": 17,
        "month": 3,
        "year": 2018
      },
      "day": "wednesday"
    },
    {
      "date": {
        "day": 31,
        "month": 3,
        "year": 2018
      },
      "day": "friday"
    }
  ],
  "working_weeks": [
    {
      "end_date": {
        "day": 6,
        "month": 10,
        "year": 2017
      },
      "start_date": {
        "day": 2,
        "month": 10,
        "year": 2017
      }
    },
    {
      "end_date": {
        "day": 13,
        "month": 10,
        "year": 2017
      },
      "start_date": {
        "day": 9,
        "month": 10,
        "year": 2017
      }
    },
    {
      "end_date": {
        "day": 20,
        "month": 10,
        "year": 2017
      },
      "start_date": {
        "day": 16,
        "month": 10,
        "year": 2017
      }
    },
    {
      "end_date": {
        "day": 27,
        "month": 10,
        "year": 2017
      },
      "start_date": {
        "day": 23,
        "month": 10,
        "year": 2017
      }
    },
    {
      "end_date": {
        "day": 3,
        "month": 11,
        "year": 2017
      },
      "start_date": {
        "day": 30,
        "month": 10,
        "year": 2017
      }
    },
    {
      "end_date": {
        "day": 10,
        "month": 11,
        "year": 2017
      },
      "start_date": {
        "day": 6,
        "month": 11,
        "year": 2017
      }
    },
    {
      "end_date": {
        "day": 17,
        "month": 11,
        "year": 2017
      },
      "start_date": {
        "day": 13,
        "month": 11,
        "year": 2017
      }
    },
    {
      "end_date": {
        "day": 24,
        "month": 11,
        "year": 2017
      },
      "start_date": {
        "day": 20,
        "month": 11,
        "year": 2017
      }
    },
    {
      "end_date": {
        "day": 2,
        "month": 12,
        "year": 2017
      },
      "start_date": {
        "day": 29,
        "month": 11,
        "year": 2017
      }
    },
    {
      "end_date": {
        "day": 8,
        "month": 12,
        "year": 2017
      },
      "start_date": {
        "day": 4,
        "month": 12,
        "year": 2017
      }
    },
    {
      "end_date": {
        "day": 16,
        "month": 12,
        "year": 2017
      },
      "start_date": {
        "day": 11,
        "month": 12,
        "year": 2017
      }
    },
    {
      "end_date": {
        "day": 22,
        "month": 12,
        "year": 2017
      },
      "start_date": {
        "day": 18,
        "month": 12,
        "year": 2017
      }
    },
    {
      "end_date": {
        "day": 29,
        "month": 12,
        "year": 2017
      },
      "start_date": {
        "day": 25,
        "month": 12,
        "year": 2017
      }
    },
    {
      "end_date": {
        "day": 23,
        "month": 2,
        "year": 2018
      },
      "start_date": {
        "day": 20,
        "month": 2,
        "year": 2018
      }
    },
    {
      "end_date": {
        "day": 3,
        "month": 3,
        "year": 2018
      },
      "start_date": {
        "day": 26,
        "month": 2,
        "year": 2018
      }
    },
    {
      "end_date": {
        "day": 9,
        "month": 3,
        "year": 2018
      },
      "start_date": {
        "day": 5,
        "month": 3,
        "year": 2018
      }
    },
    {
      "end_date": {
        "day": 17,
        "month": 3,
        "year": 2018
      },
      "start_date": {
        "day": 12,
        "month": 3,
        "year": 2018
      }
    },
    {
      "end_date": {
        "day": 23,
        "month": 3,
        "year": 2018
      },
      "start_date": {
        "day": 19,
        "month": 3,
        "year": 2018
      }
    },
    {
      "end_date": {
        "day": 31,
        "month": 3,
        "year": 2018
      },
      "start_date": {
        "day": 26,
        "month": 3,
        "year": 2018
      }
    },
    {
      "end_date": {
        "day": 3,
        "month": 4,
        "year": 2018
      },
      "start_date": {
        "day": 2,
        "month": 4,
        "year": 2018
      }
    },
    {
      "end_date": {
        "day": 5,
        "month": 4,
        "year": 2018
      },
      "start_date": {
        "day": 5,
        "month": 4,
        "year": 2018
      }
    },
    {
      "end_date": {
        "day": 20,
        "month": 4,
        "year": 2018
      },
      "start_date": {
        "day": 16,
        "month": 4,
        "year": 2018
      }
    },
    {
      "end_date": {
        "day": 27,
        "month": 4,
        "year": 2018
      },
      "start_date": {
        "day": 23,
        "month": 4,
        "year": 2018
      }
    },
    {
      "end_date": {
        "day": 4,
        "month": 5,
        "year": 2018
      },
      "start_date": {
        "day": 3,
        "month": 5,
        "year": 2018
      }
    },
    {
      "end_date": {
        "day": 11,
        "month": 5,
        "year": 2018
      },
      "start_date": {
        "day": 7,
        "month": 5,
        "year": 2018
      }
    },
    {
      "end_date": {
        "day": 18,
        "month": 5,
        "year": 2018
      },
      "start_date": {
        "day": 14,
        "month": 5,
        "year": 2018
      }
    },
    {
      "end_date": {
        "day": 25,
        "month": 5,
        "year": 2018
      },
      "start_date": {
        "day": 21,
        "month": 5,
        "year": 2018
      }
    },
    {
      "end_date": {
        "day": 30,
        "month": 5,
        "year": 2018
      },
      "start_date": {
        "day": 28,
        "month": 5,
        "year": 2018
      }
    }
  ]
}
