05.10.-09.10.2020.	Понедељак, Уторак, Среда, Четвртак, Петак
12.10.-16.10.2020.	Понедељак, Уторак, Среда, Четвртак, Петак
19.10.-23.10.2020.	Понедељак, Уторак, Среда, Четвртак, Петак
26.10.-30.10.2020.	Понедељак, Уторак, Среда, Четвртак, Петак
02.11.-06.11.2020.	Понедељак, Уторак, Среда, Четвртак, Петак
09.11.-10.11.2020.	Понедељак, Уторак
12.11.-13.11.2020.	Четвртак, Петак
16.11.-20.11.2020.	Понедељак ,Уторак, Среда, Четвртак, Петак
23.11.-27.11.2020.	Понедељак ,Уторак, Среда, Четвртак, Петак
30.11.-04.12.2020.	Понедељак, Уторак, Среда, Четвртак, Петак
07.12.-11.12.2020.	Понедељак, Уторак, Среда, Четвртак, Петак
14.12.-18.12.2020.	Понедељак, Уторак, Среда, Четвртак, Петак
21.12.-25.12.2020.	Понедељак, Уторак, Среда, Четвртак, Петак
28.12.-29.12.2020.	Понедељак, Уторак
12.01.-15.01.2021.	Уторак, Среда, Четвртак, Петак, *Уторак * Настава за Среду

Јануарски испитни рок: 18.01.2021.г. до 14.02.2021.г.

22.02.-26.02.2021.	Понедељак, Уторак, Среда, Четвртак, Петак
01.03.-05.03.2021.	Понедељак, Уторак, Среда, Четвртак, Петак
08.03.-12.03.2021.	Понедељак, Уторак, Среда, Четвртак, Петак
15.03.-19.03.2021.	Понедељак, Уторак, Среда, Четвртак, Петак
22.03.-26.03.2021.	Понедељак, Уторак, Среда, Четвртак, Петак
29.03.-02.04.2021.	Понедељак, Уторак, Среда, Четвртак, Петак
05.04.-09.04.2021.	Понедељак ,Уторак, Среда, Четвртак, Петак
12.04.-16.04.2021.	Понедељак ,Уторак, Среда, Четвртак, Петак
19.04.-23.04.2021.	Понедељак ,Уторак, Среда, Четвртак, Петак
26.04.-29.04.2021.	Понедељак, Уторак, Среда, Четвртак
04.05.-07.05.2021.	Уторак, Среда, Четвртак, Петак
10.05.-14.05.2021.	Понедељак, Уторак, Среда, Четвртак, Петак
17.05.-21.05.2021.	Понедељак, Уторак, Среда, Четвртак, Петак
24.05.-26.05.2021.	Понедељак, Уторак, Среда, *Среда * Настава за Понедељак

Јунски испитни рок: 31.05.2021.г. до 27.06.2021.г
Септембарски испитни рок: 30.08.2021.г. до 26.09.2021.г.
