

РАСПОРЕД ЧАСОВА У ЛЕТЊЕМ СЕМЕСТРУ ШКОЛСКЕ 2017/18 ГОДИНЕ

ГРУПЕ

ПРЕДАВАЧИ

УЧИОНИЦЕ

ГРУПА: 2И1А

Понедељак

15:00 - 16:00	16:00 - 17:00
Анализа 3 (вежбе)
Петар Стојчић
Н202

17:00 - 18:00	18:00 - 19:00	19:00 - 20:00
Конструкција и анализа алгоритама
Миодраг Живковић
Н225


Уторак

12:00 - 13:00	13:00 - 14:00
Алгебра 1 (вежбе)
Маја Рославцев
ЈАГ3

14:00 - 15:00	15:00 - 16:00
Објектно оријентисано програмирање (вежбе)
Ања Букуров
ЈАГ1

16:00 - 17:00
Општа астрофизика 2 (вежбе) АИНФ
Станислав Милошевић
ЈАГ2

17:00 - 18:00
Општа астрофизика 2 (вежбе) АИНФ
Станислав Милошевић
ЈАГ2

Среда

12:00 - 13:00	13:00 - 14:00
Конструкција и анализа алгоритама (вежбе)
Нина Радојичић
704

14:00 - 15:00	15:00 - 16:00
Основи механике
Душан Марчета
406

16:00 - 17:00
Општа астрофизика 2 АИНФ
Олга Атанацковић
809

17:00 - 18:00
Општа астрофизика 2 АИНФ
Олга Атанацковић
809

18:00 - 19:00
Општа астрофизика 2 АИНФ
Олга Атанацковић
809

Четвртак

15:00 - 16:00	16:00 - 17:00	17:00 - 18:00
Основи механике (вежбе)
Душан Марчета
Н201

18:00 - 19:00	19:00 - 20:00	20:00 - 21:00
Објектно оријентисано програмирање
Александар Картељ
Н225

Петак

15:00 - 16:00	16:00 - 17:00	17:00 - 18:00
Анализа 3
Александра Маринковић
821

18:00 - 19:00	19:00 - 20:00	20:00 - 21:00
Алгебра 1
Зоран Петровић
706

СЛЕДЕЋА СТРАНИЦА