

РАСПОРЕД ЧАСОВА У ЛЕТЊЕМ СЕМЕСТРУ ШКОЛСКЕ 2017/18 ГОДИНЕ

ГРУПЕ

ПРЕДАВАЧИ

УЧИОНИЦЕ

ГРУПА: 2И2Б

Понедељак

12:00 - 13:00	13:00 - 14:00	14:00 - 15:00
Основи астрономије (вежбе)
Анђелка Ковачевић
Н201


Уторак

14:00 - 15:00	15:00 - 16:00
Алгебра 1 (вежбе)
Маја Рославцев
ЈАГ3

16:00 - 17:00	17:00 - 18:00
Анализа 3 (вежбе)
Милан Павловић
ЈАГ3


Среда

15:00 - 16:00	16:00 - 17:00	17:00 - 18:00
Алгебра 1
Зоран Петровић
706


Четвртак

12:00 - 13:00	13:00 - 14:00	14:00 - 15:00
Конструкција и анализа алгоритама
Весна Маринковић
Н225

15:00 - 16:00	16:00 - 17:00	17:00 - 18:00
Објектно оријентисано програмирање
Александар Картељ
Н225

Петак

10:00 - 11:00	11:00 - 12:00
Објектно оријентисано програмирање (вежбе)
Немања Мићовић
БИМ

14:00 - 15:00	15:00 - 16:00
Основи астрономије
Анђелка Ковачевић
406

16:00 - 17:00	17:00 - 18:00
Конструкција и анализа алгоритама (вежбе)
Јелена Хаџи-Пурић
718

18:00 - 19:00	19:00 - 20:00	20:00 - 21:00
Анализа 3
Александра Маринковић
821


СЛЕДЕЋА СТРАНИЦА