

РАСПОРЕД ЧАСОВА У ЛЕТЊЕМ СЕМЕСТРУ ШКОЛСКЕ 2017/18 ГОДИНЕ

ГРУПЕ

ПРЕДАВАЧИ

УЧИОНИЦЕ

ГРУПА: 1И1А

Понедељак

11:00 - 12:00	12:00 - 13:00	13:00 - 14:00
Програмирање 2 (вежбе)
Милица Селаковић
ЈАГ1

14:00 - 15:00	15:00 - 16:00	16:00 - 17:00
Анализа 1 (вежбе)
Марија Јелић
ЈАГ1	


Уторак

08:00 - 09:00	09:00 - 10:00
Дискретне структуре 2 (вежбе)
Јелена Тасић
844

10:00 - 11:00	11:00 - 12:00
Увод у организацију и архитектуру рачунара 2 (вежбе)
Ивана Танасијевић
844

12:00 - 13:00	13:00 - 14:00
Енглески 2
Зоран Павловић
821	


Среда	

10:00 - 11:00	11:00 - 12:00	12:00 - 13:00
Анализа 1
Александра Маринковић
821	

13:00 - 14:00
Општа астрономија 2 АИНФ
Бојан Новаковић
809

14:00 - 15:00
Општа астрономија 2 АИНФ
Бојан Новаковић
809


Четвртак

08:00 - 09:00	09:00 - 10:00	10:00 - 11:00
Програмирање 2
Предраг Јаничић
821

11:00 - 12:00	12:00 - 13:00	13:00 - 14:00
Увод у организацију и архитектуру рачунара 2
Јована Ковачевић
821

14:00 - 15:00	15:00 - 16:00
Зететика - критичко расуђивање
Гордана Павловић-Лажетић
821	


Петак	

12:00 - 13:00
Општа астрономија 2 (вежбе) АИНФ
Владимир Ђошовић
ЈАГ3

13:00 - 14:00
Општа астрономија 2 (вежбе) АИНФ
Владимир Ђошовић
ЈАГ3

14:00 - 15:00
Општа астрономија 2 (вежбе) АИНФ
Владимир Ђошовић
ЈАГ3

15:00 - 16:00	16:00 - 17:00	17:00 - 18:00
Дискретне структуре 2
Зоран Станић
ЈАГ3&4	


СЛЕДЕЋА СТРАНИЦА