

РАСПОРЕД ЧАСОВА У ЛЕТЊЕМ СЕМЕСТРУ ШКОЛСКЕ 2017/18 ГОДИНЕ

ГРУПЕ

ПРЕДАВАЧИ

УЧИОНИЦЕ

ГРУПА: 1И2Ц

Понедељак

08:00 - 09:00	09:00 - 10:00	10:00 - 11:00
Увод у организацију и архитектуру рачунара 2
Милан Банковић
ЈАГ3&4

11:00 - 12:00	12:00 - 13:00	13:00 - 14:00
Дискретне структуре 2
Зоран Станић
ЈАГ3&4

Уторак

09:00 - 10:00	10:00 - 11:00	11:00 - 12:00
Програмирање 2
Весна Маринковић
706

12:00 - 13:00	13:00 - 14:00
Енглески 2
Зоран Павловић
821

Среда

08:00 - 09:00	09:00 - 10:00
Дискретне структуре 2 (вежбе)
Душан Милосављевић
ЈАГ4

10:00 - 11:00	11:00 - 12:00
Увод у организацију и архитектуру рачунара 2 (вежбе)
Никола Милев
ЈАГ1

14:00 - 15:00	15:00 - 16:00	16:00 - 17:00
Програмирање 2 (вежбе)
Милица Селаковић
ЈАГ1

Четвртак

11:00 - 12:00	12:00 - 13:00	13:00 - 14:00
Анализа 1
Александра Маринковић
718

14:00 - 15:00	15:00 - 16:00
Зететика - критичко расуђивање
Гордана Павловић-Лажетић
821


Петак

11:00 - 12:00	12:00 - 13:00	13:00 - 14:00
Анализа 1 (вежбе)
Катарина Ћојбашић
Н225


СЛЕДЕЋА СТРАНИЦА